<svg width="16" height="16" viewBox="0 0 16 16" fill="none" xmlns="http://www.w3.org/2000/svg">
<path d="M13.332 4.66699H6.66536V6.00033H13.332V14.0003H2.66536V6.00033H3.9987V8.66699H5.33203V3.33366H9.33203V0.666992H3.9987V4.66699H2.66536C1.93203 4.66699 1.33203 5.26699 1.33203 6.00033V14.0003C1.33203 14.7337 1.93203 15.3337 2.66536 15.3337H13.332C14.0654 15.3337 14.6654 14.7337 14.6654 14.0003V6.00033C14.6654 5.26699 14.0654 4.66699 13.332 4.66699Z" fill="#606060"/>
</svg>
