<svg width="25" height="24" viewBox="0 0 25 24" fill="none" xmlns="http://www.w3.org/2000/svg">
<path d="M16.2069 7.41L14.7969 6L8.79688 12L14.7969 18L16.2069 16.59L11.6269 12L16.2069 7.41Z" fill="#5A6D57"/>
</svg>
